{
  "packages": [
    {
      "name": "misal",
      "maintainer": "Misal",
      "help": {
        "online": "http://www.misal.fi"
      },
      "websiteURL": "http://www.misal.fi",
      "email": "info@misal.fi",
      "platforms": [
        {
          "category": "Misal",
          "url": "https://bitbucket.org/misal/misal_boards/raw/master/misal-boards-0.0.1.zip",
          "checksum": "SHA-256:3a193eac8ae1f95fc44a53505343f785a7b64be1942e56de063a8d845581aa9d",
          "version": "0.0.1",
          "architecture": "avr",
          "archiveFileName": "misal-boards-0.0.1.zip",
          "boards": [
            {
              "name": "Misal 530"
            }
          ],
          "size": "2470058",
          "toolsDependencies": [],
          "name": "Misalduino"
        }
      ],
      "tools": []
    }
  ]
}